{"hash":"5c016b27a73a79e88fa4c47a961625675662d228","data":{"posts":{"totalCount":7,"pageInfo":{"totalPages":3,"currentPage":3},"edges":[{"node":{"id":"9472373ee3868eac28e45848073862cd","title":"Refrescando Principios SOLID","date":"7, May, 2020","summary":"En este artículo haremos un repaso de los principios Solid a través de diferentes ejemplos de código","timeToRead":5,"path":"/solid-principles"}}]}},"context":{}}