{"hash":"4408042105ab45e797843adf7a48d57b9c9e44f5","data":{"posts":{"totalCount":4,"pageInfo":{"totalPages":2,"currentPage":2},"edges":[{"node":{"id":"9472373ee3868eac28e45848073862cd","title":"Refrescando Principios SOLID","date":"7, May, 2020","summary":"En este artículo haremos un repaso de los principios Solid a través de diferentes ejemplos de código","timeToRead":5,"path":"/solid-principles"}}]}},"context":{}}