{"hash":"fc5f79f215e2ea136890941df653526632efc188","data":{"posts":{"totalCount":6,"pageInfo":{"totalPages":2,"currentPage":1},"edges":[{"node":{"id":"0cad0a680e9186ea0282fcc09a74fcd2","title":"Bluetooth GATT Server from zero to 🚀","date":"10, May, 2023","summary":"Explicación desde 0 de Bluetooth advertisement y GATT server con ejemplos.","timeToRead":3,"path":"/bluetooth-gatt-server"}},{"node":{"id":"c97227f0200e03b6fa666ea6475806dd","title":"La documentación deseada","date":"12, December, 2021","summary":"Este artículo trata sobre que partes son, desde mi punto de vista, indispensables en la documentación de cualquier proyecto.","timeToRead":5,"path":"/the-desired-documentation"}},{"node":{"id":"0ee433e5051eae8601ff6688a33c4bfe","title":"Splash screen en 1 minuto con Android 12 Splash Screen API","date":"16, June, 2021","summary":"Splash screen en 1 minuto con Android 12 Splash Screen API","timeToRead":3,"path":"/android-12-splash-screen"}}]}},"context":{}}